digraph dependencies {
        label="Yeso type flow; there is an arrow from a type to each function that takes it as an argument, and an arrow to each type from each type that contains it or can be coerced to it, and from each function that returns it.\nSo, to find out how to call yp_fill, for example, you can follow the arrows backwards to see that you need a ypix and a ypic, and that you can get the ypic from yw_frame, yp_new, or yp_read_png, among other functions;\nand, to call yw_frame, you need a ywin, which comes only from yw_open, using two char*s and a yp_p2, which can be obtained from two s32s."
        subgraph types {
                node [shape=square];
                subgraph ints {
                        node [label=int];
                        int bool fd u32in die stride;
                }
                long int s32 u8 u32 -> ypix ywin;
                yp_p2 [label="yp_p2\nAn ordered\npair of pixel\ncoordinates"];
                ypixp [label="ypix*"];
                ypixp -> ypix;
                ypic [label="ypic\nA rectangular\nregion of\nTrueColor\npixels"];
                ypic -> ypixp;
                ypic -> stride [label=stride];
                ypic -> yp_p2 [label=size];
                subgraph charps {
                        node [label="char*"];
                        charp options name msg s s2;
                }
                s32 -> u32in -> {u32 s32};
                
                keysym [label=u32];
                yw_eventp [label="yw_event*"];
                yw_mouse_eventp [label="yw_mouse_event*"];
                yw_key_eventp [label="yw_key_event*"];
                yw_raw_eventp [label="yw_raw_event*"];
                yw_die_event [label="yw_die_event"];
                yp_fontp [label="yp_font*"];
        }
        s32 -> {s32_max s32_min} -> s32;
        s32 -> {s32_max s32_min};
        s32 -> yp_p2 [constraint=false]; // avoid horking layout too much
        yp_p2 -> {yp_p_add yp_p_sub} -> yp_p2;
        yp_p2 -> {yp_p_add yp_p_sub yp_p_within};
        yp_p2 -> yp_p_within -> bool;
        ypic -> yp_line -> ypixp;
        int -> yp_line [label=y];
        yp_new -> ypic -> yp_sub;
        yp_p2 -> yp_sub [label=start];
        yp_sub -> ypic [label="subimage of larger image"];
        yp_p2 -> yp_sub [label=size];
        ypic -> yp_copy [label=dest];
        ypic -> yp_copy [label=src];
        {ypic ypix} -> yp_fill;
        charp -> {yp_read_png yp_read_jpeg yp_read_ppmp6 yp_write_ppmp6} [label=filename];
        {yp_read_png yp_read_jpeg yp_read_ppmp6} -> ypic -> yp_write_ppmp6;
        yp_p2 -> yw_open -> ywin -> {yw_close yw_flip};
        name -> yw_open [label=name];
        options -> yw_open [label=options];
        ywin -> yw_frame;
        yw_frame -> ypic [label=framebuffer];
        ywin -> yw_wait;
        long -> yw_wait [label=timeout_usecs];
        ywin -> yw_get_event -> yw_eventp;
        yw_eventp -> yw_as_mouse_event -> yw_mouse_eventp;
        yw_eventp -> yw_as_key_event -> yw_key_eventp;
        yw_eventp -> yw_as_raw_event -> yw_raw_eventp;
        yw_eventp -> yw_as_die_event -> yw_die_event;
        yw_mouse_eventp -> yp_p2 [label=p];
        yw_mouse_eventp -> u8 [label=buttons];
        yw_key_eventp -> s [label=text];
        yw_key_eventp -> keysym [label=keysym];
        yw_key_eventp -> u8 [label=len];
        yw_key_eventp -> u8 [label=down];
        yw_die_event -> die;
        charp -> yp_font_read [label=filename];
        yp_font_read -> yp_fontp -> {yp_font_show yp_font_delete};
        s2 -> yp_font_show [label=text];
        ypic -> yp_font_show;
        ywin -> yw_fds -> fd;
        msg -> yeso_error_handler [label=msg];
}
